%YAML 1.1
%TAG !u! tag:unity3d.com,2011:
--- !u!221 &22100000
AnimatorOverrideController:
  m_ObjectHideFlags: 0
  m_PrefabParentObject: {fileID: 0}
  m_PrefabInternal: {fileID: 0}
  m_Name: DungeonRoom4
  m_Controller: {fileID: 9100000, guid: ba7a106d5647147029109a974bcabcae, type: 2}
  m_Clips:
  - m_OriginalClip: {fileID: 7400000, guid: ccf7cab3c3aaa4b66bb7fd74876a148c, type: 2}
    m_OverrideClip: {fileID: 0}
  - m_OriginalClip: {fileID: 7400000, guid: 6567b47468bb74b28aca34e1de179f7b, type: 2}
    m_OverrideClip: {fileID: 0}
  - m_OriginalClip: {fileID: 7400000, guid: cb24bf3937d8c4e759011b0a2b05a722, type: 2}
    m_OverrideClip: {fileID: 0}
  - m_OriginalClip: {fileID: 7400000, guid: 26326fcdb6d9849ebaa48aea573a4e4b, type: 2}
    m_OverrideClip: {fileID: 0}
  - m_OriginalClip: {fileID: 7400000, guid: 45c9ca1f924964b3e8fde591f1e97cca, type: 2}
    m_OverrideClip: {fileID: 0}
